V2 30
FL C:/EDK/hw/XilinxProcessorIPLib/pcores/wrpfifo_v1_01_b/hdl/vhdl/wrpfifo_dp_cntl.vhd 2005/03/03.05:53:01 H.42
EN wrpfifo_v1_01_b/WRPFIFO_DP_CNTL 1149784760 \
      FL C:/EDK/hw/XilinxProcessorIPLib/pcores/wrpfifo_v1_01_b/hdl/vhdl/wrpfifo_dp_cntl.vhd \
      PB ieee/STD_LOGIC_1164 1106404628 PB ieee/STD_LOGIC_ARITH 1106404630 \
      PB ieee/STD_LOGIC_UNSIGNED 1106404634 EN proc_common_v2_00_a/PF_COUNTER_TOP 1149784748 \
      EN proc_common_v2_00_a/PF_OCC_COUNTER_TOP 1149784746 \
      EN proc_common_v2_00_a/PF_ADDER 1149784750
AR wrpfifo_v1_01_b/WRPFIFO_DP_CNTL/IMPLEMENTATION 1149784761 \
      FL C:/EDK/hw/XilinxProcessorIPLib/pcores/wrpfifo_v1_01_b/hdl/vhdl/wrpfifo_dp_cntl.vhd \
      EN wrpfifo_v1_01_b/WRPFIFO_DP_CNTL 1149784760 CP STD_LOGIC \
      CP TRANSITION_STATE_TYPE CP STD_LOGIC_VECTOR CP PF_DLY1_MUX \
      CP PF_OCC_COUNTER_TOP CP PF_COUNTER_TOP CP BOOLEAN    CP PF_ADDER
FL C:/EDK/hw/XilinxProcessorIPLib/pcores/wrpfifo_v1_01_b/hdl/vhdl/wrpfifo_top.vhd 2005/03/03.05:53:01 H.42
EN wrpfifo_v1_01_b/WRPFIFO_TOP 1149784802 \
      FL C:/EDK/hw/XilinxProcessorIPLib/pcores/wrpfifo_v1_01_b/hdl/vhdl/wrpfifo_top.vhd \
      PB ieee/STD_LOGIC_1164 1106404628 PB ieee/STD_LOGIC_ARITH 1106404630 \
      EN proc_common_v2_00_a/PF_DPRAM_SELECT 1149784762 \
      EN proc_common_v2_00_a/SRL16_FIFO 1149784764
AR wrpfifo_v1_01_b/WRPFIFO_TOP/IMPLEMENTATION 1149784803 \
      FL C:/EDK/hw/XilinxProcessorIPLib/pcores/wrpfifo_v1_01_b/hdl/vhdl/wrpfifo_top.vhd \
      EN wrpfifo_v1_01_b/WRPFIFO_TOP 1149784802 CP IPIF_CONTROL_WR CP INTEGER \
      CP BOOLEAN        CP IN             CP OUT            CP WRPFIFO_DP_CNTL \
      CP PF_DPRAM_SELECT CP SRL16_FIFO
FL C:/EDK/hw/XilinxProcessorIPLib/pcores/wrpfifo_v1_01_b/hdl/vhdl/pf_dly1_mux.vhd 2005/03/03.05:53:01 H.42
EN wrpfifo_v1_01_b/PF_DLY1_MUX 1149784752 \
      FL C:/EDK/hw/XilinxProcessorIPLib/pcores/wrpfifo_v1_01_b/hdl/vhdl/pf_dly1_mux.vhd \
      PB ieee/STD_LOGIC_1164 1106404628 EN proc_common_v2_00_a/INFERRED_LUT4 1149784736 \
      PH unisim/VCOMPONENTS 1122082370
AR wrpfifo_v1_01_b/PF_DLY1_MUX/IMPLEMENTATION 1149784753 \
      FL C:/EDK/hw/XilinxProcessorIPLib/pcores/wrpfifo_v1_01_b/hdl/vhdl/pf_dly1_mux.vhd \
      EN wrpfifo_v1_01_b/PF_DLY1_MUX 1149784752 CP INFERRED_LUT4 CP FDRE
FL C:/EDK/hw/XilinxProcessorIPLib/pcores/wrpfifo_v1_01_b/hdl/vhdl/ipif_control_wr.vhd 2005/03/03.05:53:01 H.42
EN wrpfifo_v1_01_b/IPIF_CONTROL_WR 1149784758 \
      FL C:/EDK/hw/XilinxProcessorIPLib/pcores/wrpfifo_v1_01_b/hdl/vhdl/ipif_control_wr.vhd \
      PB ieee/STD_LOGIC_1164 1106404628 PB ieee/STD_LOGIC_ARITH 1106404630
AR wrpfifo_v1_01_b/IPIF_CONTROL_WR/IMPLEMENTATION 1149784759 \
      FL C:/EDK/hw/XilinxProcessorIPLib/pcores/wrpfifo_v1_01_b/hdl/vhdl/ipif_control_wr.vhd \
      EN wrpfifo_v1_01_b/IPIF_CONTROL_WR 1149784758 CP STD_LOGIC_VECTOR CP INTEGER
