proc_common_v2_00_a "C:/EDK/hw/XilinxProcessorIPLib/pcores/proc_common_v2_00_a/hdl/vhdl/pselect.vhd"
proc_common_v2_00_a "C:/EDK/hw/XilinxProcessorIPLib/pcores/proc_common_v2_00_a/hdl/vhdl/proc_common_pkg.vhd"
opb_ipif_v3_01_a "C:/EDK/hw/XilinxProcessorIPLib/pcores/opb_ipif_v3_01_a/hdl/vhdl/opb_be_gen.vhd"
proc_common_v2_00_a "C:/EDK/hw/XilinxProcessorIPLib/pcores/proc_common_v2_00_a/hdl/vhdl/direct_path_cntr_ai.vhd"
opb_ipif_v3_01_a "C:/EDK/hw/XilinxProcessorIPLib/pcores/opb_ipif_v3_01_a/hdl/vhdl/brst_addr_cntr.vhd"
opb_ipif_v3_01_a "C:/EDK/hw/XilinxProcessorIPLib/pcores/opb_ipif_v3_01_a/hdl/vhdl/opb_flex_addr_cntr.vhd"
opb_ipif_v3_01_a "C:/EDK/hw/XilinxProcessorIPLib/pcores/opb_ipif_v3_01_a/hdl/vhdl/brst_addr_cntr_reg.vhd"
opb_ipif_v3_01_a "C:/EDK/hw/XilinxProcessorIPLib/pcores/opb_ipif_v3_01_a/hdl/vhdl/srl_fifo3.vhd"
proc_common_v2_00_a "C:/EDK/hw/XilinxProcessorIPLib/pcores/proc_common_v2_00_a/hdl/vhdl/counter_bit.vhd"
proc_common_v2_00_a "C:/EDK/hw/XilinxProcessorIPLib/pcores/proc_common_v2_00_a/hdl/vhdl/counter.vhd"
opb_ipif_v3_01_a "C:/EDK/hw/XilinxProcessorIPLib/pcores/opb_ipif_v3_01_a/hdl/vhdl/write_buffer.vhd"
proc_common_v2_00_a "C:/EDK/hw/XilinxProcessorIPLib/pcores/proc_common_v2_00_a/hdl/vhdl/or_muxcy.vhd"
proc_common_v2_00_a "C:/EDK/hw/XilinxProcessorIPLib/pcores/proc_common_v2_00_a/hdl/vhdl/ipif_steer.vhd"
opb_ipif_v3_01_a "C:/EDK/hw/XilinxProcessorIPLib/pcores/opb_ipif_v3_01_a/hdl/vhdl/reset_mir.vhd"
proc_common_v2_00_a "C:/EDK/hw/XilinxProcessorIPLib/pcores/proc_common_v2_00_a/hdl/vhdl/ipif_pkg.vhd"
interrupt_control_v1_00_a "C:/EDK/hw/XilinxProcessorIPLib/pcores/interrupt_control_v1_00_a/hdl/vhdl/interrupt_control.vhd"
rdpfifo_v1_01_b "C:/EDK/hw/XilinxProcessorIPLib/pcores/rdpfifo_v1_01_b/hdl/vhdl/ipif_control_rd.vhd"
proc_common_v2_00_a "C:/EDK/hw/XilinxProcessorIPLib/pcores/proc_common_v2_00_a/hdl/vhdl/inferred_lut4.vhd"
proc_common_v2_00_a "C:/EDK/hw/XilinxProcessorIPLib/pcores/proc_common_v2_00_a/hdl/vhdl/pf_counter_bit.vhd"
proc_common_v2_00_a "C:/EDK/hw/XilinxProcessorIPLib/pcores/proc_common_v2_00_a/hdl/vhdl/pf_occ_counter.vhd"
proc_common_v2_00_a "C:/EDK/hw/XilinxProcessorIPLib/pcores/proc_common_v2_00_a/hdl/vhdl/pf_occ_counter_top.vhd"
proc_common_v2_00_a "C:/EDK/hw/XilinxProcessorIPLib/pcores/proc_common_v2_00_a/hdl/vhdl/pf_counter.vhd"
proc_common_v2_00_a "C:/EDK/hw/XilinxProcessorIPLib/pcores/proc_common_v2_00_a/hdl/vhdl/pf_counter_top.vhd"
proc_common_v2_00_a "C:/EDK/hw/XilinxProcessorIPLib/pcores/proc_common_v2_00_a/hdl/vhdl/pf_adder_bit.vhd"
proc_common_v2_00_a "C:/EDK/hw/XilinxProcessorIPLib/pcores/proc_common_v2_00_a/hdl/vhdl/pf_adder.vhd"
rdpfifo_v1_01_b "C:/EDK/hw/XilinxProcessorIPLib/pcores/rdpfifo_v1_01_b/hdl/vhdl/rdpfifo_dp_cntl.vhd"
proc_common_v2_00_a "C:/EDK/hw/XilinxProcessorIPLib/pcores/proc_common_v2_00_a/hdl/vhdl/pf_dpram_select.vhd"
proc_common_v2_00_a "C:/EDK/hw/XilinxProcessorIPLib/pcores/proc_common_v2_00_a/hdl/vhdl/srl16_fifo.vhd"
rdpfifo_v1_01_b "C:/EDK/hw/XilinxProcessorIPLib/pcores/rdpfifo_v1_01_b/hdl/vhdl/rdpfifo_top.vhd"
wrpfifo_v1_01_b "C:/EDK/hw/XilinxProcessorIPLib/pcores/wrpfifo_v1_01_b/hdl/vhdl/ipif_control_wr.vhd"
wrpfifo_v1_01_b "C:/EDK/hw/XilinxProcessorIPLib/pcores/wrpfifo_v1_01_b/hdl/vhdl/pf_dly1_mux.vhd"
wrpfifo_v1_01_b "C:/EDK/hw/XilinxProcessorIPLib/pcores/wrpfifo_v1_01_b/hdl/vhdl/wrpfifo_dp_cntl.vhd"
wrpfifo_v1_01_b "C:/EDK/hw/XilinxProcessorIPLib/pcores/wrpfifo_v1_01_b/hdl/vhdl/wrpfifo_top.vhd"
proc_common_v2_00_a "C:/EDK/hw/XilinxProcessorIPLib/pcores/proc_common_v2_00_a/hdl/vhdl/family.vhd"
opb_ipif_v3_01_a "C:/EDK/hw/XilinxProcessorIPLib/pcores/opb_ipif_v3_01_a/hdl/vhdl/opb_bam.vhd"
opb_ipif_v3_01_a "C:/EDK/hw/XilinxProcessorIPLib/pcores/opb_ipif_v3_01_a/hdl/vhdl/opb_ipif.vhd"
noc2proc_opb_v1_00_a "C:/repository/MyProcessorIPLib/pcores/noc2proc_opb_v1_00_a/hdl/vhdl/user_logic.vhd"
noc2proc_opb_v1_00_a "C:/repository/MyProcessorIPLib/pcores/noc2proc_opb_v1_00_a/hdl/vhdl/noc2proc_opb.vhd"
