Project Navigator Auto-Make Log File
-------------------------------------










Started process "Check Syntax".


=========================================================================
*                          HDL Compilation                              *
=========================================================================
Compiling vhdl file "C:/EDK/hw/XilinxProcessorIPLib/pcores/proc_common_v1_00_b/hdl/vhdl/inferred_lut4.vhd" in Library proc_common_v1_00_b.
Entity <inferred_lut4> compiled.
Entity <inferred_lut4> (Architecture <implementation>) compiled.
Compiling vhdl file "C:/EDK/hw/XilinxProcessorIPLib/pcores/plb_ipif_v1_00_e/hdl/vhdl/pf_counter_bit.vhd" in Library plb_ipif_v1_00_e.
Entity <pf_counter_bit> compiled.
Entity <pf_counter_bit> (Architecture <implementation>) compiled.
Compiling vhdl file "C:/EDK/hw/XilinxProcessorIPLib/pcores/plb_ipif_v1_00_e/hdl/vhdl/pf_adder_bit.vhd" in Library plb_ipif_v1_00_e.
Entity <pf_adder_bit> compiled.
Entity <pf_adder_bit> (Architecture <implementation>) compiled.
Compiling vhdl file "C:/EDK/hw/XilinxProcessorIPLib/pcores/plb_ipif_v1_00_e/hdl/vhdl/pf_counter.vhd" in Library plb_ipif_v1_00_e.
Entity <pf_counter> compiled.
Entity <pf_counter> (Architecture <implementation>) compiled.
Compiling vhdl file "C:/EDK/hw/XilinxProcessorIPLib/pcores/plb_ipif_v1_00_e/hdl/vhdl/pf_occ_counter.vhd" in Library plb_ipif_v1_00_e.
Entity <pf_occ_counter> compiled.
Entity <pf_occ_counter> (Architecture <implementation>) compiled.
Compiling vhdl file "C:/EDK/hw/XilinxProcessorIPLib/pcores/proc_common_v1_00_b/hdl/vhdl/proc_common_pkg.vhd" in Library proc_common_v1_00_b.
Package <proc_common_pkg> compiled.
Package body <proc_common_pkg> compiled.
Compiling vhdl file "C:/EDK/hw/XilinxProcessorIPLib/pcores/proc_common_v1_00_b/hdl/vhdl/counter_bit.vhd" in Library proc_common_v1_00_b.
Entity <counter_bit> compiled.
Entity <counter_bit> (Architecture <imp>) compiled.
Compiling vhdl file "C:/EDK/hw/XilinxProcessorIPLib/pcores/proc_common_v1_00_b/hdl/vhdl/or_muxcy.vhd" in Library proc_common_v1_00_b.
Entity <or_muxcy> compiled.
Entity <or_muxcy> (Architecture <implementation>) compiled.
Compiling vhdl file "C:/EDK/hw/XilinxProcessorIPLib/pcores/plb_ipif_v1_00_e/hdl/vhdl/pf_occ_counter_top.vhd" in Library plb_ipif_v1_00_e.
Entity <pf_occ_counter_top> compiled.
Entity <pf_occ_counter_top> (Architecture <implementation>) compiled.
Compiling vhdl file "C:/EDK/hw/XilinxProcessorIPLib/pcores/plb_ipif_v1_00_e/hdl/vhdl/pf_counter_top.vhd" in Library plb_ipif_v1_00_e.
Entity <pf_counter_top> compiled.
Entity <pf_counter_top> (Architecture <implementation>) compiled.
Compiling vhdl file "C:/EDK/hw/XilinxProcessorIPLib/pcores/plb_ipif_v1_00_e/hdl/vhdl/pf_adder.vhd" in Library plb_ipif_v1_00_e.
Entity <pf_adder> compiled.
Entity <pf_adder> (Architecture <implementation>) compiled.
Compiling vhdl file "C:/EDK/hw/XilinxProcessorIPLib/pcores/plb_ipif_v1_00_e/hdl/vhdl/pf_dly1_mux.vhd" in Library plb_ipif_v1_00_e.
Entity <pf_dly1_mux> compiled.
Entity <pf_dly1_mux> (Architecture <implementation>) compiled.
Compiling vhdl file "C:/EDK/hw/XilinxProcessorIPLib/pcores/plb_ipif_v1_00_e/hdl/vhdl/flex_addr_cntr.vhd" in Library plb_ipif_v1_00_e.
Entity <flex_addr_cntr> compiled.
Entity <flex_addr_cntr> (Architecture <implementation>) compiled.
Compiling vhdl file "C:/EDK/hw/XilinxProcessorIPLib/pcores/proc_common_v1_00_b/hdl/vhdl/or_gate.vhd" in Library proc_common_v1_00_b.
Entity <or_gate> compiled.
Entity <or_gate> (Architecture <imp>) compiled.
Compiling vhdl file "C:/EDK/hw/XilinxProcessorIPLib/pcores/proc_common_v1_00_b/hdl/vhdl/pselect.vhd" in Library proc_common_v1_00_b.
Entity <pselect> compiled.
Entity <pselect> (Architecture <imp>) compiled.
Compiling vhdl file "C:/EDK/hw/XilinxProcessorIPLib/pcores/proc_common_v1_00_b/hdl/vhdl/counter.vhd" in Library proc_common_v1_00_b.
Entity <Counter> compiled.
Entity <Counter> (Architecture <imp>) compiled.
Compiling vhdl file "C:/EDK/hw/XilinxProcessorIPLib/pcores/proc_common_v1_00_b/hdl/vhdl/srl_fifo2.vhd" in Library proc_common_v1_00_b.
Entity <srl_fifo2> compiled.
Entity <srl_fifo2> (Architecture <imp>) compiled.
Compiling vhdl file "C:/EDK/hw/XilinxProcessorIPLib/pcores/proc_common_v1_00_b/hdl/vhdl/family.vhd" in Library proc_common_v1_00_b.
Package <family> compiled.
Package body <family> compiled.
Compiling vhdl file "C:/EDK/hw/XilinxProcessorIPLib/pcores/ipif_common_v1_00_b/hdl/vhdl/ipif_pkg.vhd" in Library ipif_common_v1_00_b.
Package <ipif_pkg> compiled.
Package body <ipif_pkg> compiled.
Compiling vhdl file "C:/EDK/hw/XilinxProcessorIPLib/pcores/plb_ipif_v1_00_e/hdl/vhdl/ipif_control_wr.vhd" in Library plb_ipif_v1_00_e.
Entity <ipif_control_wr> compiled.
Entity <ipif_control_wr> (Architecture <implementation>) compiled.
Compiling vhdl file "C:/EDK/hw/XilinxProcessorIPLib/pcores/plb_ipif_v1_00_e/hdl/vhdl/wrpfifo_dp_cntl.vhd" in Library plb_ipif_v1_00_e.
Entity <wrpfifo_dp_cntl> compiled.
Entity <wrpfifo_dp_cntl> (Architecture <implementation>) compiled.
Compiling vhdl file "C:/EDK/hw/XilinxProcessorIPLib/pcores/plb_ipif_v1_00_e/hdl/vhdl/pf_dpram_select.vhd" in Library plb_ipif_v1_00_e.
Entity <pf_dpram_select> compiled.
Entity <pf_dpram_select> (Architecture <implementation>) compiled.
Compiling vhdl file "C:/EDK/hw/XilinxProcessorIPLib/pcores/plb_ipif_v1_00_e/hdl/vhdl/srl16_fifo.vhd" in Library plb_ipif_v1_00_e.
Entity <srl16_fifo> compiled.
Entity <srl16_fifo> (Architecture <implementation>) compiled.
Compiling vhdl file "C:/EDK/hw/XilinxProcessorIPLib/pcores/plb_ipif_v1_00_e/hdl/vhdl/ipif_control_rd.vhd" in Library plb_ipif_v1_00_e.
Entity <ipif_control_rd> compiled.
Entity <ipif_control_rd> (Architecture <implementation>) compiled.
Compiling vhdl file "C:/EDK/hw/XilinxProcessorIPLib/pcores/plb_ipif_v1_00_e/hdl/vhdl/rdpfifo_dp_cntl.vhd" in Library plb_ipif_v1_00_e.
Entity <rdpfifo_dp_cntl> compiled.
Entity <rdpfifo_dp_cntl> (Architecture <implementation>) compiled.
Compiling vhdl file "C:/EDK/hw/XilinxProcessorIPLib/pcores/ipif_common_v1_00_b/hdl/vhdl/ipif_steer.vhd" in Library ipif_common_v1_00_b.
Entity <IPIF_Steer> compiled.
Entity <IPIF_Steer> (Architecture <IMP>) compiled.
Compiling vhdl file "C:/EDK/hw/XilinxProcessorIPLib/pcores/plb_ipif_v1_00_e/hdl/vhdl/plb_address_decoder.vhd" in Library plb_ipif_v1_00_e.
Entity <plb_address_decoder> compiled.
Entity <plb_address_decoder> (Architecture <IMP>) compiled.
Compiling vhdl file "C:/EDK/hw/XilinxProcessorIPLib/pcores/plb_ipif_v1_00_e/hdl/vhdl/burst_support.vhd" in Library plb_ipif_v1_00_e.
Entity <burst_support> compiled.
Entity <burst_support> (Architecture <implementation>) compiled.
Compiling vhdl file "C:/EDK/hw/XilinxProcessorIPLib/pcores/plb_ipif_v1_00_e/hdl/vhdl/addr_reg_cntr_brst_flex.vhd" in Library plb_ipif_v1_00_e.
Entity <addr_reg_cntr_brst_flex> compiled.
Entity <addr_reg_cntr_brst_flex> (Architecture <implementation>) compiled.
Compiling vhdl file "C:/EDK/hw/XilinxProcessorIPLib/pcores/plb_ipif_v1_00_e/hdl/vhdl/plb_slave_attachment_indet.vhd" in Library plb_ipif_v1_00_e.
Entity <plb_slave_attachment_indet> compiled.
Entity <plb_slave_attachment_indet> (Architecture <implementation>) compiled.
Compiling vhdl file "C:/EDK/hw/XilinxProcessorIPLib/pcores/plb_ipif_v1_00_e/hdl/vhdl/plb_ipif_reset.vhd" in Library plb_ipif_v1_00_e.
Entity <plb_ipif_reset> compiled.
Entity <plb_ipif_reset> (Architecture <implementation>) compiled.
Compiling vhdl file "C:/EDK/hw/XilinxProcessorIPLib/pcores/plb_ipif_v1_00_e/hdl/vhdl/plb_interrupt_control.vhd" in Library plb_ipif_v1_00_e.
Entity <plb_interrupt_control> compiled.
Entity <plb_interrupt_control> (Architecture <implementation>) compiled.
Compiling vhdl file "C:/EDK/hw/XilinxProcessorIPLib/pcores/plb_ipif_v1_00_e/hdl/vhdl/plb_sesr_sear.vhd" in Library plb_ipif_v1_00_e.
Entity <plb_sesr_sear> compiled.
Entity <plb_sesr_sear> (Architecture <implementation>) compiled.
Compiling vhdl file "C:/EDK/hw/XilinxProcessorIPLib/pcores/plb_ipif_v1_00_e/hdl/vhdl/rdpfifo_top.vhd" in Library plb_ipif_v1_00_e.
Entity <rdpfifo_top> compiled.
Entity <rdpfifo_top> (Architecture <implementation>) compiled.
Compiling vhdl file "C:/EDK/hw/XilinxProcessorIPLib/pcores/plb_ipif_v1_00_e/hdl/vhdl/wrpfifo_top.vhd" in Library plb_ipif_v1_00_e.
Entity <wrpfifo_top> compiled.
Entity <wrpfifo_top> (Architecture <implementation>) compiled.
Compiling vhdl file "C:/EDK/hw/XilinxProcessorIPLib/pcores/plb_ipif_v1_00_e/hdl/vhdl/plb_ipif.vhd" in Library plb_ipif_v1_00_e.
Entity <plb_ipif> compiled.
Entity <plb_ipif> (Architecture <implementation>) compiled.
Compiling vhdl file "C:/repository/MyProcessorIPLib/pcores/noc2proc_plb_v1_00_a/hdl/vhdl/noc2proc_plb.vhd" in Library noc2proc_plb_v1_00_a.
ERROR:HDLParsers:3317 - "C:/repository/MyProcessorIPLib/pcores/noc2proc_plb_v1_00_a/hdl/vhdl/noc2proc_plb.vhd" Line 79.  Library noc2proc_plb_v2_00_a cannot be found.
ERROR:HDLParsers:3014 - "C:/repository/MyProcessorIPLib/pcores/noc2proc_plb_v1_00_a/hdl/vhdl/noc2proc_plb.vhd" Line 80. Library unit noc2proc_plb_v2_00_a is not available in library noc2proc_plb_v1_00_a.
WARNING:HDLParsers:3481 - Library noc2proc_plb_v1_00_a has no units. Did not save reference file "xst/noc2proc_plb_v1_00_a/hdllib.ref" for it.
ERROR: XST failed
Process "Check Syntax" did not complete.


Project Navigator Auto-Make Log File
-------------------------------------










Started process "Check Syntax".


=========================================================================
*                          HDL Compilation                              *
=========================================================================
Compiling vhdl file "C:/EDK/hw/XilinxProcessorIPLib/pcores/proc_common_v1_00_b/hdl/vhdl/inferred_lut4.vhd" in Library proc_common_v1_00_b.
Architecture implementation of Entity inferred_lut4 is up to date.
Compiling vhdl file "C:/EDK/hw/XilinxProcessorIPLib/pcores/plb_ipif_v1_00_e/hdl/vhdl/pf_counter_bit.vhd" in Library plb_ipif_v1_00_e.
Architecture implementation of Entity pf_counter_bit is up to date.
Compiling vhdl file "C:/EDK/hw/XilinxProcessorIPLib/pcores/plb_ipif_v1_00_e/hdl/vhdl/pf_adder_bit.vhd" in Library plb_ipif_v1_00_e.
Architecture implementation of Entity pf_adder_bit is up to date.
Compiling vhdl file "C:/EDK/hw/XilinxProcessorIPLib/pcores/plb_ipif_v1_00_e/hdl/vhdl/pf_counter.vhd" in Library plb_ipif_v1_00_e.
Architecture implementation of Entity pf_counter is up to date.
Compiling vhdl file "C:/EDK/hw/XilinxProcessorIPLib/pcores/plb_ipif_v1_00_e/hdl/vhdl/pf_occ_counter.vhd" in Library plb_ipif_v1_00_e.
Architecture implementation of Entity pf_occ_counter is up to date.
Compiling vhdl file "C:/EDK/hw/XilinxProcessorIPLib/pcores/proc_common_v1_00_b/hdl/vhdl/proc_common_pkg.vhd" in Library proc_common_v1_00_b.
Architecture proc_common_pkg of Entity proc_common_pkg is up to date.
Compiling vhdl file "C:/EDK/hw/XilinxProcessorIPLib/pcores/proc_common_v1_00_b/hdl/vhdl/counter_bit.vhd" in Library proc_common_v1_00_b.
Architecture imp of Entity counter_bit is up to date.
Compiling vhdl file "C:/EDK/hw/XilinxProcessorIPLib/pcores/proc_common_v1_00_b/hdl/vhdl/or_muxcy.vhd" in Library proc_common_v1_00_b.
Architecture implementation of Entity or_muxcy is up to date.
Compiling vhdl file "C:/EDK/hw/XilinxProcessorIPLib/pcores/plb_ipif_v1_00_e/hdl/vhdl/pf_occ_counter_top.vhd" in Library plb_ipif_v1_00_e.
Architecture implementation of Entity pf_occ_counter_top is up to date.
Compiling vhdl file "C:/EDK/hw/XilinxProcessorIPLib/pcores/plb_ipif_v1_00_e/hdl/vhdl/pf_counter_top.vhd" in Library plb_ipif_v1_00_e.
Architecture implementation of Entity pf_counter_top is up to date.
Compiling vhdl file "C:/EDK/hw/XilinxProcessorIPLib/pcores/plb_ipif_v1_00_e/hdl/vhdl/pf_adder.vhd" in Library plb_ipif_v1_00_e.
Architecture implementation of Entity pf_adder is up to date.
Compiling vhdl file "C:/EDK/hw/XilinxProcessorIPLib/pcores/plb_ipif_v1_00_e/hdl/vhdl/pf_dly1_mux.vhd" in Library plb_ipif_v1_00_e.
Architecture implementation of Entity pf_dly1_mux is up to date.
Compiling vhdl file "C:/EDK/hw/XilinxProcessorIPLib/pcores/plb_ipif_v1_00_e/hdl/vhdl/flex_addr_cntr.vhd" in Library plb_ipif_v1_00_e.
Architecture implementation of Entity flex_addr_cntr is up to date.
Compiling vhdl file "C:/EDK/hw/XilinxProcessorIPLib/pcores/proc_common_v1_00_b/hdl/vhdl/or_gate.vhd" in Library proc_common_v1_00_b.
Architecture imp of Entity or_gate is up to date.
Compiling vhdl file "C:/EDK/hw/XilinxProcessorIPLib/pcores/proc_common_v1_00_b/hdl/vhdl/pselect.vhd" in Library proc_common_v1_00_b.
Architecture imp of Entity pselect is up to date.
Compiling vhdl file "C:/EDK/hw/XilinxProcessorIPLib/pcores/proc_common_v1_00_b/hdl/vhdl/counter.vhd" in Library proc_common_v1_00_b.
Architecture imp of Entity counter is up to date.
Compiling vhdl file "C:/EDK/hw/XilinxProcessorIPLib/pcores/proc_common_v1_00_b/hdl/vhdl/srl_fifo2.vhd" in Library proc_common_v1_00_b.
Architecture imp of Entity srl_fifo2 is up to date.
Compiling vhdl file "C:/EDK/hw/XilinxProcessorIPLib/pcores/proc_common_v1_00_b/hdl/vhdl/family.vhd" in Library proc_common_v1_00_b.
Architecture family of Entity family is up to date.
Compiling vhdl file "C:/EDK/hw/XilinxProcessorIPLib/pcores/ipif_common_v1_00_b/hdl/vhdl/ipif_pkg.vhd" in Library ipif_common_v1_00_b.
Architecture ipif_pkg of Entity ipif_pkg is up to date.
Compiling vhdl file "C:/EDK/hw/XilinxProcessorIPLib/pcores/plb_ipif_v1_00_e/hdl/vhdl/ipif_control_wr.vhd" in Library plb_ipif_v1_00_e.
Architecture implementation of Entity ipif_control_wr is up to date.
Compiling vhdl file "C:/EDK/hw/XilinxProcessorIPLib/pcores/plb_ipif_v1_00_e/hdl/vhdl/wrpfifo_dp_cntl.vhd" in Library plb_ipif_v1_00_e.
Architecture implementation of Entity wrpfifo_dp_cntl is up to date.
Compiling vhdl file "C:/EDK/hw/XilinxProcessorIPLib/pcores/plb_ipif_v1_00_e/hdl/vhdl/pf_dpram_select.vhd" in Library plb_ipif_v1_00_e.
Architecture implementation of Entity pf_dpram_select is up to date.
Compiling vhdl file "C:/EDK/hw/XilinxProcessorIPLib/pcores/plb_ipif_v1_00_e/hdl/vhdl/srl16_fifo.vhd" in Library plb_ipif_v1_00_e.
Architecture implementation of Entity srl16_fifo is up to date.
Compiling vhdl file "C:/EDK/hw/XilinxProcessorIPLib/pcores/plb_ipif_v1_00_e/hdl/vhdl/ipif_control_rd.vhd" in Library plb_ipif_v1_00_e.
Architecture implementation of Entity ipif_control_rd is up to date.
Compiling vhdl file "C:/EDK/hw/XilinxProcessorIPLib/pcores/plb_ipif_v1_00_e/hdl/vhdl/rdpfifo_dp_cntl.vhd" in Library plb_ipif_v1_00_e.
Architecture implementation of Entity rdpfifo_dp_cntl is up to date.
Compiling vhdl file "C:/EDK/hw/XilinxProcessorIPLib/pcores/ipif_common_v1_00_b/hdl/vhdl/ipif_steer.vhd" in Library ipif_common_v1_00_b.
Architecture imp of Entity ipif_steer is up to date.
Compiling vhdl file "C:/EDK/hw/XilinxProcessorIPLib/pcores/plb_ipif_v1_00_e/hdl/vhdl/plb_address_decoder.vhd" in Library plb_ipif_v1_00_e.
Architecture imp of Entity plb_address_decoder is up to date.
Compiling vhdl file "C:/EDK/hw/XilinxProcessorIPLib/pcores/plb_ipif_v1_00_e/hdl/vhdl/burst_support.vhd" in Library plb_ipif_v1_00_e.
Architecture implementation of Entity burst_support is up to date.
Compiling vhdl file "C:/EDK/hw/XilinxProcessorIPLib/pcores/plb_ipif_v1_00_e/hdl/vhdl/addr_reg_cntr_brst_flex.vhd" in Library plb_ipif_v1_00_e.
Architecture implementation of Entity addr_reg_cntr_brst_flex is up to date.
Compiling vhdl file "C:/EDK/hw/XilinxProcessorIPLib/pcores/plb_ipif_v1_00_e/hdl/vhdl/plb_slave_attachment_indet.vhd" in Library plb_ipif_v1_00_e.
Architecture implementation of Entity plb_slave_attachment_indet is up to date.
Compiling vhdl file "C:/EDK/hw/XilinxProcessorIPLib/pcores/plb_ipif_v1_00_e/hdl/vhdl/plb_ipif_reset.vhd" in Library plb_ipif_v1_00_e.
Architecture implementation of Entity plb_ipif_reset is up to date.
Compiling vhdl file "C:/EDK/hw/XilinxProcessorIPLib/pcores/plb_ipif_v1_00_e/hdl/vhdl/plb_interrupt_control.vhd" in Library plb_ipif_v1_00_e.
Architecture implementation of Entity plb_interrupt_control is up to date.
Compiling vhdl file "C:/EDK/hw/XilinxProcessorIPLib/pcores/plb_ipif_v1_00_e/hdl/vhdl/plb_sesr_sear.vhd" in Library plb_ipif_v1_00_e.
Architecture implementation of Entity plb_sesr_sear is up to date.
Compiling vhdl file "C:/EDK/hw/XilinxProcessorIPLib/pcores/plb_ipif_v1_00_e/hdl/vhdl/rdpfifo_top.vhd" in Library plb_ipif_v1_00_e.
Architecture implementation of Entity rdpfifo_top is up to date.
Compiling vhdl file "C:/EDK/hw/XilinxProcessorIPLib/pcores/plb_ipif_v1_00_e/hdl/vhdl/wrpfifo_top.vhd" in Library plb_ipif_v1_00_e.
Architecture implementation of Entity wrpfifo_top is up to date.
Compiling vhdl file "C:/EDK/hw/XilinxProcessorIPLib/pcores/plb_ipif_v1_00_e/hdl/vhdl/plb_ipif.vhd" in Library plb_ipif_v1_00_e.
Architecture implementation of Entity plb_ipif is up to date.
Compiling vhdl file "C:/repository/MyProcessorIPLib/pcores/noc2proc_plb_v1_00_a/hdl/vhdl/noc2proc_plb.vhd" in Library noc2proc_plb_v1_00_a.
Entity <noc2proc_plb> compiled.
ERROR:HDLParsers:709 - "C:/repository/MyProcessorIPLib/pcores/noc2proc_plb_v1_00_a/hdl/vhdl/noc2proc_plb.vhd" Line 616. user_logic is not an entity name
ERROR: XST failed
Process "Check Syntax" did not complete.


Project Navigator Auto-Make Log File
-------------------------------------










Started process "Check Syntax".


=========================================================================
*                          HDL Compilation                              *
=========================================================================
Compiling vhdl file "C:/EDK/hw/XilinxProcessorIPLib/pcores/proc_common_v1_00_b/hdl/vhdl/inferred_lut4.vhd" in Library proc_common_v1_00_b.
Architecture implementation of Entity inferred_lut4 is up to date.
Compiling vhdl file "C:/EDK/hw/XilinxProcessorIPLib/pcores/plb_ipif_v1_00_e/hdl/vhdl/pf_counter_bit.vhd" in Library plb_ipif_v1_00_e.
Architecture implementation of Entity pf_counter_bit is up to date.
Compiling vhdl file "C:/EDK/hw/XilinxProcessorIPLib/pcores/plb_ipif_v1_00_e/hdl/vhdl/pf_adder_bit.vhd" in Library plb_ipif_v1_00_e.
Architecture implementation of Entity pf_adder_bit is up to date.
Compiling vhdl file "C:/EDK/hw/XilinxProcessorIPLib/pcores/plb_ipif_v1_00_e/hdl/vhdl/pf_counter.vhd" in Library plb_ipif_v1_00_e.
Architecture implementation of Entity pf_counter is up to date.
Compiling vhdl file "C:/EDK/hw/XilinxProcessorIPLib/pcores/plb_ipif_v1_00_e/hdl/vhdl/pf_occ_counter.vhd" in Library plb_ipif_v1_00_e.
Architecture implementation of Entity pf_occ_counter is up to date.
Compiling vhdl file "C:/EDK/hw/XilinxProcessorIPLib/pcores/proc_common_v1_00_b/hdl/vhdl/proc_common_pkg.vhd" in Library proc_common_v1_00_b.
Architecture proc_common_pkg of Entity proc_common_pkg is up to date.
Compiling vhdl file "C:/EDK/hw/XilinxProcessorIPLib/pcores/proc_common_v1_00_b/hdl/vhdl/counter_bit.vhd" in Library proc_common_v1_00_b.
Architecture imp of Entity counter_bit is up to date.
Compiling vhdl file "C:/EDK/hw/XilinxProcessorIPLib/pcores/proc_common_v1_00_b/hdl/vhdl/or_muxcy.vhd" in Library proc_common_v1_00_b.
Architecture implementation of Entity or_muxcy is up to date.
Compiling vhdl file "C:/EDK/hw/XilinxProcessorIPLib/pcores/plb_ipif_v1_00_e/hdl/vhdl/pf_occ_counter_top.vhd" in Library plb_ipif_v1_00_e.
Architecture implementation of Entity pf_occ_counter_top is up to date.
Compiling vhdl file "C:/EDK/hw/XilinxProcessorIPLib/pcores/plb_ipif_v1_00_e/hdl/vhdl/pf_counter_top.vhd" in Library plb_ipif_v1_00_e.
Architecture implementation of Entity pf_counter_top is up to date.
Compiling vhdl file "C:/EDK/hw/XilinxProcessorIPLib/pcores/plb_ipif_v1_00_e/hdl/vhdl/pf_adder.vhd" in Library plb_ipif_v1_00_e.
Architecture implementation of Entity pf_adder is up to date.
Compiling vhdl file "C:/EDK/hw/XilinxProcessorIPLib/pcores/plb_ipif_v1_00_e/hdl/vhdl/pf_dly1_mux.vhd" in Library plb_ipif_v1_00_e.
Architecture implementation of Entity pf_dly1_mux is up to date.
Compiling vhdl file "C:/EDK/hw/XilinxProcessorIPLib/pcores/plb_ipif_v1_00_e/hdl/vhdl/flex_addr_cntr.vhd" in Library plb_ipif_v1_00_e.
Architecture implementation of Entity flex_addr_cntr is up to date.
Compiling vhdl file "C:/EDK/hw/XilinxProcessorIPLib/pcores/proc_common_v1_00_b/hdl/vhdl/or_gate.vhd" in Library proc_common_v1_00_b.
Architecture imp of Entity or_gate is up to date.
Compiling vhdl file "C:/EDK/hw/XilinxProcessorIPLib/pcores/proc_common_v1_00_b/hdl/vhdl/pselect.vhd" in Library proc_common_v1_00_b.
Architecture imp of Entity pselect is up to date.
Compiling vhdl file "C:/EDK/hw/XilinxProcessorIPLib/pcores/proc_common_v1_00_b/hdl/vhdl/counter.vhd" in Library proc_common_v1_00_b.
Architecture imp of Entity counter is up to date.
Compiling vhdl file "C:/EDK/hw/XilinxProcessorIPLib/pcores/proc_common_v1_00_b/hdl/vhdl/srl_fifo2.vhd" in Library proc_common_v1_00_b.
Architecture imp of Entity srl_fifo2 is up to date.
Compiling vhdl file "C:/EDK/hw/XilinxProcessorIPLib/pcores/proc_common_v1_00_b/hdl/vhdl/family.vhd" in Library proc_common_v1_00_b.
Architecture family of Entity family is up to date.
Compiling vhdl file "C:/EDK/hw/XilinxProcessorIPLib/pcores/ipif_common_v1_00_b/hdl/vhdl/ipif_pkg.vhd" in Library ipif_common_v1_00_b.
Architecture ipif_pkg of Entity ipif_pkg is up to date.
Compiling vhdl file "C:/EDK/hw/XilinxProcessorIPLib/pcores/plb_ipif_v1_00_e/hdl/vhdl/ipif_control_wr.vhd" in Library plb_ipif_v1_00_e.
Architecture implementation of Entity ipif_control_wr is up to date.
Compiling vhdl file "C:/EDK/hw/XilinxProcessorIPLib/pcores/plb_ipif_v1_00_e/hdl/vhdl/wrpfifo_dp_cntl.vhd" in Library plb_ipif_v1_00_e.
Architecture implementation of Entity wrpfifo_dp_cntl is up to date.
Compiling vhdl file "C:/EDK/hw/XilinxProcessorIPLib/pcores/plb_ipif_v1_00_e/hdl/vhdl/pf_dpram_select.vhd" in Library plb_ipif_v1_00_e.
Architecture implementation of Entity pf_dpram_select is up to date.
Compiling vhdl file "C:/EDK/hw/XilinxProcessorIPLib/pcores/plb_ipif_v1_00_e/hdl/vhdl/srl16_fifo.vhd" in Library plb_ipif_v1_00_e.
Architecture implementation of Entity srl16_fifo is up to date.
Compiling vhdl file "C:/EDK/hw/XilinxProcessorIPLib/pcores/plb_ipif_v1_00_e/hdl/vhdl/ipif_control_rd.vhd" in Library plb_ipif_v1_00_e.
Architecture implementation of Entity ipif_control_rd is up to date.
Compiling vhdl file "C:/EDK/hw/XilinxProcessorIPLib/pcores/plb_ipif_v1_00_e/hdl/vhdl/rdpfifo_dp_cntl.vhd" in Library plb_ipif_v1_00_e.
Architecture implementation of Entity rdpfifo_dp_cntl is up to date.
Compiling vhdl file "C:/EDK/hw/XilinxProcessorIPLib/pcores/ipif_common_v1_00_b/hdl/vhdl/ipif_steer.vhd" in Library ipif_common_v1_00_b.
Architecture imp of Entity ipif_steer is up to date.
Compiling vhdl file "C:/EDK/hw/XilinxProcessorIPLib/pcores/plb_ipif_v1_00_e/hdl/vhdl/plb_address_decoder.vhd" in Library plb_ipif_v1_00_e.
Architecture imp of Entity plb_address_decoder is up to date.
Compiling vhdl file "C:/EDK/hw/XilinxProcessorIPLib/pcores/plb_ipif_v1_00_e/hdl/vhdl/burst_support.vhd" in Library plb_ipif_v1_00_e.
Architecture implementation of Entity burst_support is up to date.
Compiling vhdl file "C:/EDK/hw/XilinxProcessorIPLib/pcores/plb_ipif_v1_00_e/hdl/vhdl/addr_reg_cntr_brst_flex.vhd" in Library plb_ipif_v1_00_e.
Architecture implementation of Entity addr_reg_cntr_brst_flex is up to date.
Compiling vhdl file "C:/EDK/hw/XilinxProcessorIPLib/pcores/plb_ipif_v1_00_e/hdl/vhdl/plb_slave_attachment_indet.vhd" in Library plb_ipif_v1_00_e.
Architecture implementation of Entity plb_slave_attachment_indet is up to date.
Compiling vhdl file "C:/EDK/hw/XilinxProcessorIPLib/pcores/plb_ipif_v1_00_e/hdl/vhdl/plb_ipif_reset.vhd" in Library plb_ipif_v1_00_e.
Architecture implementation of Entity plb_ipif_reset is up to date.
Compiling vhdl file "C:/EDK/hw/XilinxProcessorIPLib/pcores/plb_ipif_v1_00_e/hdl/vhdl/plb_interrupt_control.vhd" in Library plb_ipif_v1_00_e.
Architecture implementation of Entity plb_interrupt_control is up to date.
Compiling vhdl file "C:/EDK/hw/XilinxProcessorIPLib/pcores/plb_ipif_v1_00_e/hdl/vhdl/plb_sesr_sear.vhd" in Library plb_ipif_v1_00_e.
Architecture implementation of Entity plb_sesr_sear is up to date.
Compiling vhdl file "C:/EDK/hw/XilinxProcessorIPLib/pcores/plb_ipif_v1_00_e/hdl/vhdl/rdpfifo_top.vhd" in Library plb_ipif_v1_00_e.
Architecture implementation of Entity rdpfifo_top is up to date.
Compiling vhdl file "C:/EDK/hw/XilinxProcessorIPLib/pcores/plb_ipif_v1_00_e/hdl/vhdl/wrpfifo_top.vhd" in Library plb_ipif_v1_00_e.
Architecture implementation of Entity wrpfifo_top is up to date.
Compiling vhdl file "C:/EDK/hw/XilinxProcessorIPLib/pcores/plb_ipif_v1_00_e/hdl/vhdl/plb_ipif.vhd" in Library plb_ipif_v1_00_e.
Architecture implementation of Entity plb_ipif is up to date.
Compiling vhdl file "C:/repository/MyProcessorIPLib/pcores/noc2proc_plb_v1_00_a/hdl/vhdl/user_logic.vhd" in Library noc2proc_plb_v1_00_a.
Entity <user_logic> compiled.
Entity <user_logic> (Architecture <IMP>) compiled.
Compiling vhdl file "C:/repository/MyProcessorIPLib/pcores/noc2proc_plb_v1_00_a/hdl/vhdl/noc2proc_plb.vhd" in Library noc2proc_plb_v1_00_a.
Entity <noc2proc_plb> compiled.
Entity <noc2proc_plb> (Architecture <IMP>) compiled.

